('E:\\coder\\AIS\\DLP_Storage\\dist\\main.exe',
 True,
 False,
 False,
 'E:\\coder\\AIS\\DLP_Storage\\venv\\lib\\site-packages\\PyInstaller\\bootloader\\images\\icon-console.ico',
 None,
 False,
 False,
 '<?xml version="1.0" encoding="UTF-8" standalone="yes"?><assembly xmlns="urn:schemas-microsoft-com:asm.v1" manifestVersion="1.0"><assemblyIdentity type="win32" name="main" processorArchitecture="amd64" version="1.0.0.0"/><trustInfo xmlns="urn:schemas-microsoft-com:asm.v3"><security><requestedPrivileges><requestedExecutionLevel level="asInvoker" uiAccess="false"/></requestedPrivileges></security></trustInfo><dependency><dependentAssembly><assemblyIdentity type="win32" name="Microsoft.Windows.Common-Controls" language="*" processorArchitecture="*" version="6.0.0.0" publicKeyToken="6595b64144ccf1df"/></dependentAssembly></dependency><compatibility xmlns="urn:schemas-microsoft-com:compatibility.v1"><application><supportedOS Id="{e2011457-1546-43c5-a5fe-008deee3d3f0}"/><supportedOS Id="{35138b9a-5d96-4fbd-8e2d-a2440225f93a}"/><supportedOS Id="{4a2f28e3-53b9-4441-ba9c-d69d4a4a6e38}"/><supportedOS Id="{1f676c76-80e1-4239-95bb-83d0f6d0da78}"/><supportedOS Id="{8e0f7a12-bfb3-4fe8-b9a5-48fd50a15a9a}"/></application></compatibility><application xmlns="urn:schemas-microsoft-com:asm.v3"><windowsSettings><longPathAware xmlns="http://schemas.microsoft.com/SMI/2016/WindowsSettings">true</longPathAware></windowsSettings></application></assembly>',
 True,
 True,
 False,
 None,
 None,
 None,
 'E:\\coder\\AIS\\DLP_Storage\\build\\main\\main.pkg',
 [('PYZ-00.pyz', 'E:\\coder\\AIS\\DLP_Storage\\build\\main\\PYZ-00.pyz', 'PYZ'),
  ('struct', 'C:\\Python310\\lib\\struct.pyo', 'PYMODULE'),
  ('pyimod01_os_path',
   'E:\\coder\\AIS\\DLP_Storage\\venv\\lib\\site-packages\\PyInstaller\\loader\\pyimod01_os_path.pyc',
   'PYMODULE'),
  ('pyimod02_archive',
   'E:\\coder\\AIS\\DLP_Storage\\venv\\lib\\site-packages\\PyInstaller\\loader\\pyimod02_archive.pyc',
   'PYMODULE'),
  ('pyimod03_importers',
   'E:\\coder\\AIS\\DLP_Storage\\venv\\lib\\site-packages\\PyInstaller\\loader\\pyimod03_importers.pyc',
   'PYMODULE'),
  ('pyimod04_ctypes',
   'E:\\coder\\AIS\\DLP_Storage\\venv\\lib\\site-packages\\PyInstaller\\loader\\pyimod04_ctypes.pyc',
   'PYMODULE'),
  ('pyiboot01_bootstrap',
   'E:\\coder\\AIS\\DLP_Storage\\venv\\lib\\site-packages\\PyInstaller\\loader\\pyiboot01_bootstrap.py',
   'PYSOURCE'),
  ('pyi_rth_subprocess',
   'E:\\coder\\AIS\\DLP_Storage\\venv\\Lib\\site-packages\\PyInstaller\\hooks\\rthooks\\pyi_rth_subprocess.py',
   'PYSOURCE'),
  ('pyi_rth_inspect',
   'E:\\coder\\AIS\\DLP_Storage\\venv\\Lib\\site-packages\\PyInstaller\\hooks\\rthooks\\pyi_rth_inspect.py',
   'PYSOURCE'),
  ('pyi_rth_pkgutil',
   'E:\\coder\\AIS\\DLP_Storage\\venv\\Lib\\site-packages\\PyInstaller\\hooks\\rthooks\\pyi_rth_pkgutil.py',
   'PYSOURCE'),
  ('pyi_rth_multiprocessing',
   'E:\\coder\\AIS\\DLP_Storage\\venv\\Lib\\site-packages\\PyInstaller\\hooks\\rthooks\\pyi_rth_multiprocessing.py',
   'PYSOURCE'),
  ('main', 'E:\\coder\\AIS\\DLP_Storage\\main.py', 'PYSOURCE'),
  ('api-ms-win-crt-locale-l1-1-0.dll',
   'C:\\Windows\\system32\\api-ms-win-crt-locale-l1-1-0.dll',
   'BINARY'),
  ('api-ms-win-crt-math-l1-1-0.dll',
   'C:\\Windows\\system32\\api-ms-win-crt-math-l1-1-0.dll',
   'BINARY'),
  ('python310.dll', 'C:\\Python310\\python310.dll', 'BINARY'),
  ('api-ms-win-crt-heap-l1-1-0.dll',
   'C:\\Windows\\system32\\api-ms-win-crt-heap-l1-1-0.dll',
   'BINARY'),
  ('VCRUNTIME140.dll', 'C:\\Python310\\VCRUNTIME140.dll', 'BINARY'),
  ('api-ms-win-crt-stdio-l1-1-0.dll',
   'C:\\Windows\\system32\\api-ms-win-crt-stdio-l1-1-0.dll',
   'BINARY'),
  ('api-ms-win-crt-runtime-l1-1-0.dll',
   'C:\\Windows\\system32\\api-ms-win-crt-runtime-l1-1-0.dll',
   'BINARY'),
  ('ucrtbase.dll', 'C:\\Windows\\system32\\ucrtbase.dll', 'BINARY'),
  ('api-ms-win-crt-convert-l1-1-0.dll',
   'C:\\Windows\\system32\\api-ms-win-crt-convert-l1-1-0.dll',
   'BINARY'),
  ('api-ms-win-crt-filesystem-l1-1-0.dll',
   'C:\\Windows\\system32\\api-ms-win-crt-filesystem-l1-1-0.dll',
   'BINARY'),
  ('api-ms-win-crt-conio-l1-1-0.dll',
   'C:\\Windows\\system32\\api-ms-win-crt-conio-l1-1-0.dll',
   'BINARY'),
  ('api-ms-win-core-path-l1-1-0.dll',
   'C:\\Windows\\system32\\api-ms-win-core-path-l1-1-0.dll',
   'BINARY'),
  ('api-ms-win-crt-process-l1-1-0.dll',
   'C:\\Windows\\system32\\api-ms-win-crt-process-l1-1-0.dll',
   'BINARY'),
  ('api-ms-win-crt-environment-l1-1-0.dll',
   'C:\\Windows\\system32\\api-ms-win-crt-environment-l1-1-0.dll',
   'BINARY'),
  ('api-ms-win-crt-string-l1-1-0.dll',
   'C:\\Windows\\system32\\api-ms-win-crt-string-l1-1-0.dll',
   'BINARY'),
  ('api-ms-win-crt-time-l1-1-0.dll',
   'C:\\Windows\\system32\\api-ms-win-crt-time-l1-1-0.dll',
   'BINARY'),
  ('api-ms-win-core-console-l1-1-0.dll',
   'C:\\Windows\\system32\\api-ms-win-core-console-l1-1-0.dll',
   'BINARY'),
  ('api-ms-win-core-interlocked-l1-1-0.dll',
   'C:\\Windows\\system32\\api-ms-win-core-interlocked-l1-1-0.dll',
   'BINARY'),
  ('api-ms-win-core-debug-l1-1-0.dll',
   'C:\\Windows\\system32\\api-ms-win-core-debug-l1-1-0.dll',
   'BINARY'),
  ('api-ms-win-core-datetime-l1-1-0.dll',
   'C:\\Windows\\system32\\api-ms-win-core-datetime-l1-1-0.dll',
   'BINARY'),
  ('api-ms-win-core-file-l1-1-0.dll',
   'C:\\Windows\\system32\\api-ms-win-core-file-l1-1-0.dll',
   'BINARY'),
  ('api-ms-win-core-errorhandling-l1-1-0.dll',
   'C:\\Windows\\system32\\api-ms-win-core-errorhandling-l1-1-0.dll',
   'BINARY'),
  ('api-ms-win-core-heap-l1-1-0.dll',
   'C:\\Windows\\system32\\api-ms-win-core-heap-l1-1-0.dll',
   'BINARY'),
  ('api-ms-win-core-string-l1-1-0.dll',
   'C:\\Windows\\system32\\api-ms-win-core-string-l1-1-0.dll',
   'BINARY'),
  ('api-ms-win-core-namedpipe-l1-1-0.dll',
   'C:\\Windows\\system32\\api-ms-win-core-namedpipe-l1-1-0.dll',
   'BINARY'),
  ('api-ms-win-core-handle-l1-1-0.dll',
   'C:\\Windows\\system32\\api-ms-win-core-handle-l1-1-0.dll',
   'BINARY'),
  ('api-ms-win-core-synch-l1-2-0.dll',
   'C:\\Windows\\system32\\api-ms-win-core-synch-l1-2-0.dll',
   'BINARY'),
  ('api-ms-win-core-util-l1-1-0.dll',
   'C:\\Windows\\system32\\api-ms-win-core-util-l1-1-0.dll',
   'BINARY'),
  ('api-ms-win-core-sysinfo-l1-1-0.dll',
   'C:\\Windows\\system32\\api-ms-win-core-sysinfo-l1-1-0.dll',
   'BINARY'),
  ('api-ms-win-core-processenvironment-l1-1-0.dll',
   'C:\\Windows\\system32\\api-ms-win-core-processenvironment-l1-1-0.dll',
   'BINARY'),
  ('api-ms-win-core-synch-l1-1-0.dll',
   'C:\\Windows\\system32\\api-ms-win-core-synch-l1-1-0.dll',
   'BINARY'),
  ('api-ms-win-core-file-l2-1-0.dll',
   'C:\\Windows\\system32\\api-ms-win-core-file-l2-1-0.dll',
   'BINARY'),
  ('api-ms-win-core-rtlsupport-l1-1-0.dll',
   'C:\\Windows\\system32\\api-ms-win-core-rtlsupport-l1-1-0.dll',
   'BINARY'),
  ('api-ms-win-core-timezone-l1-1-0.dll',
   'C:\\Windows\\system32\\api-ms-win-core-timezone-l1-1-0.dll',
   'BINARY'),
  ('api-ms-win-core-profile-l1-1-0.dll',
   'C:\\Windows\\system32\\api-ms-win-core-profile-l1-1-0.dll',
   'BINARY'),
  ('api-ms-win-core-file-l1-2-0.dll',
   'C:\\Windows\\system32\\api-ms-win-core-file-l1-2-0.dll',
   'BINARY'),
  ('api-ms-win-core-libraryloader-l1-1-0.dll',
   'C:\\Windows\\system32\\api-ms-win-core-libraryloader-l1-1-0.dll',
   'BINARY'),
  ('api-ms-win-core-processthreads-l1-1-1.dll',
   'C:\\Windows\\system32\\api-ms-win-core-processthreads-l1-1-1.dll',
   'BINARY'),
  ('api-ms-win-core-localization-l1-2-0.dll',
   'C:\\Windows\\system32\\api-ms-win-core-localization-l1-2-0.dll',
   'BINARY'),
  ('api-ms-win-core-processthreads-l1-1-0.dll',
   'C:\\Windows\\system32\\api-ms-win-core-processthreads-l1-1-0.dll',
   'BINARY'),
  ('api-ms-win-core-memory-l1-1-0.dll',
   'C:\\Windows\\system32\\api-ms-win-core-memory-l1-1-0.dll',
   'BINARY'),
  ('_multiprocessing',
   'C:\\Python310\\DLLs\\_multiprocessing.pyd',
   'EXTENSION'),
  ('_decimal', 'C:\\Python310\\DLLs\\_decimal.pyd', 'EXTENSION'),
  ('_hashlib', 'C:\\Python310\\DLLs\\_hashlib.pyd', 'EXTENSION'),
  ('unicodedata', 'C:\\Python310\\DLLs\\unicodedata.pyd', 'EXTENSION'),
  ('select', 'C:\\Python310\\DLLs\\select.pyd', 'EXTENSION'),
  ('_socket', 'C:\\Python310\\DLLs\\_socket.pyd', 'EXTENSION'),
  ('_lzma', 'C:\\Python310\\DLLs\\_lzma.pyd', 'EXTENSION'),
  ('_bz2', 'C:\\Python310\\DLLs\\_bz2.pyd', 'EXTENSION'),
  ('pyexpat', 'C:\\Python310\\DLLs\\pyexpat.pyd', 'EXTENSION'),
  ('_ssl', 'C:\\Python310\\DLLs\\_ssl.pyd', 'EXTENSION'),
  ('_ctypes', 'C:\\Python310\\DLLs\\_ctypes.pyd', 'EXTENSION'),
  ('_queue', 'C:\\Python310\\DLLs\\_queue.pyd', 'EXTENSION'),
  ('lxml.etree',
   'E:\\coder\\AIS\\DLP_Storage\\venv\\lib\\site-packages\\lxml\\etree.cp310-win_amd64.pyd',
   'EXTENSION'),
  ('lxml._elementpath',
   'E:\\coder\\AIS\\DLP_Storage\\venv\\lib\\site-packages\\lxml\\_elementpath.cp310-win_amd64.pyd',
   'EXTENSION'),
  ('lxml.html.clean',
   'E:\\coder\\AIS\\DLP_Storage\\venv\\lib\\site-packages\\lxml\\html\\clean.cp310-win_amd64.pyd',
   'EXTENSION'),
  ('lxml.objectify',
   'E:\\coder\\AIS\\DLP_Storage\\venv\\lib\\site-packages\\lxml\\objectify.cp310-win_amd64.pyd',
   'EXTENSION'),
  ('lxml.sax',
   'E:\\coder\\AIS\\DLP_Storage\\venv\\lib\\site-packages\\lxml\\sax.cp310-win_amd64.pyd',
   'EXTENSION'),
  ('_overlapped', 'C:\\Python310\\DLLs\\_overlapped.pyd', 'EXTENSION'),
  ('_asyncio', 'C:\\Python310\\DLLs\\_asyncio.pyd', 'EXTENSION'),
  ('lxml.builder',
   'E:\\coder\\AIS\\DLP_Storage\\venv\\lib\\site-packages\\lxml\\builder.cp310-win_amd64.pyd',
   'EXTENSION'),
  ('lxml.html.diff',
   'E:\\coder\\AIS\\DLP_Storage\\venv\\lib\\site-packages\\lxml\\html\\diff.cp310-win_amd64.pyd',
   'EXTENSION'),
  ('libcrypto-1_1.dll', 'C:\\Python310\\DLLs\\libcrypto-1_1.dll', 'BINARY'),
  ('api-ms-win-crt-utility-l1-1-0.dll',
   'C:\\Windows\\system32\\api-ms-win-crt-utility-l1-1-0.dll',
   'BINARY'),
  ('libssl-1_1.dll', 'C:\\Python310\\DLLs\\libssl-1_1.dll', 'BINARY'),
  ('libffi-7.dll', 'C:\\Python310\\DLLs\\libffi-7.dll', 'BINARY'),
  ('base_library.zip',
   'E:\\coder\\AIS\\DLP_Storage\\build\\main\\base_library.zip',
   'DATA'),
  ('docx\\templates\\default.docx',
   'E:\\coder\\AIS\\DLP_Storage\\venv\\lib\\site-packages\\docx\\templates\\default.docx',
   'DATA'),
  ('lxml\\isoschematron\\resources\\xsl\\iso-schematron-xslt1\\readme.txt',
   'E:\\coder\\AIS\\DLP_Storage\\venv\\lib\\site-packages\\lxml\\isoschematron\\resources\\xsl\\iso-schematron-xslt1\\readme.txt',
   'DATA'),
  ('lxml\\isoschematron\\resources\\xsl\\iso-schematron-xslt1\\iso_schematron_message.xsl',
   'E:\\coder\\AIS\\DLP_Storage\\venv\\lib\\site-packages\\lxml\\isoschematron\\resources\\xsl\\iso-schematron-xslt1\\iso_schematron_message.xsl',
   'DATA'),
  ('lxml\\isoschematron\\resources\\xsl\\iso-schematron-xslt1\\iso_dsdl_include.xsl',
   'E:\\coder\\AIS\\DLP_Storage\\venv\\lib\\site-packages\\lxml\\isoschematron\\resources\\xsl\\iso-schematron-xslt1\\iso_dsdl_include.xsl',
   'DATA'),
  ('lxml\\isoschematron\\resources\\xsl\\iso-schematron-xslt1\\iso_svrl_for_xslt1.xsl',
   'E:\\coder\\AIS\\DLP_Storage\\venv\\lib\\site-packages\\lxml\\isoschematron\\resources\\xsl\\iso-schematron-xslt1\\iso_svrl_for_xslt1.xsl',
   'DATA'),
  ('docx\\templates\\default-styles.xml',
   'E:\\coder\\AIS\\DLP_Storage\\venv\\lib\\site-packages\\docx\\templates\\default-styles.xml',
   'DATA'),
  ('docx\\templates\\default-header.xml',
   'E:\\coder\\AIS\\DLP_Storage\\venv\\lib\\site-packages\\docx\\templates\\default-header.xml',
   'DATA'),
  ('docx\\templates\\default-settings.xml',
   'E:\\coder\\AIS\\DLP_Storage\\venv\\lib\\site-packages\\docx\\templates\\default-settings.xml',
   'DATA'),
  ('lxml\\isoschematron\\resources\\xsl\\RNG2Schtrn.xsl',
   'E:\\coder\\AIS\\DLP_Storage\\venv\\lib\\site-packages\\lxml\\isoschematron\\resources\\xsl\\RNG2Schtrn.xsl',
   'DATA'),
  ('lxml\\isoschematron\\resources\\rng\\iso-schematron.rng',
   'E:\\coder\\AIS\\DLP_Storage\\venv\\lib\\site-packages\\lxml\\isoschematron\\resources\\rng\\iso-schematron.rng',
   'DATA'),
  ('lxml\\isoschematron\\resources\\xsl\\iso-schematron-xslt1\\iso_abstract_expand.xsl',
   'E:\\coder\\AIS\\DLP_Storage\\venv\\lib\\site-packages\\lxml\\isoschematron\\resources\\xsl\\iso-schematron-xslt1\\iso_abstract_expand.xsl',
   'DATA'),
  ('lxml\\isoschematron\\resources\\xsl\\iso-schematron-xslt1\\iso_schematron_skeleton_for_xslt1.xsl',
   'E:\\coder\\AIS\\DLP_Storage\\venv\\lib\\site-packages\\lxml\\isoschematron\\resources\\xsl\\iso-schematron-xslt1\\iso_schematron_skeleton_for_xslt1.xsl',
   'DATA'),
  ('lxml\\isoschematron\\resources\\xsl\\XSD2Schtrn.xsl',
   'E:\\coder\\AIS\\DLP_Storage\\venv\\lib\\site-packages\\lxml\\isoschematron\\resources\\xsl\\XSD2Schtrn.xsl',
   'DATA'),
  ('docx\\templates\\default-footer.xml',
   'E:\\coder\\AIS\\DLP_Storage\\venv\\lib\\site-packages\\docx\\templates\\default-footer.xml',
   'DATA')],
 [],
 False,
 False,
 1657270042,
 [('run.exe',
   'E:\\coder\\AIS\\DLP_Storage\\venv\\lib\\site-packages\\PyInstaller\\bootloader\\Windows-64bit\\run.exe',
   'EXECUTABLE')])
