16d5e814a17dc497d9d27ab0809c53df	inputFolder\B1_Tong quan ve tan cong mang_2LT.pptx	 (mật)
bd75ed55767a3caad6e147d5a72628d9	inputFolder\Dự toán P1.xlsx	 (kế hoạch)
d0a31dbbeaa89b60950d48e1f79fc8e8	inputFolder\input_doc.docx	 (kế hoạch)
90bc9f01c9be264dd1ec140137903f8d	inputFolder\Kế hoạch hoạt động - Copy.docx	 (kế hoạch)
90bc9f01c9be264dd1ec140137903f8d	inputFolder\Kế hoạch hoạt động.docx	 (kế hoạch)
8e14a5d3b0768ca1b274da3c924a4bdb	inputFolder\test.docx	 (mật)
22b132c24878954ad26e2da4e52aebbe	inputFolder\Kế hoạch quý 4 cty.pdf	 (kế hoạch)
949f55e40705ff6fecd8d3e265201a95	test	 (mật)
052cf1bed68179a2176b4b5edc4c874d	test_pdf	 (mật)