(['E:\\coder\\AIS\\DLP_Storage\\main.py'],
 ['E:\\coder\\AIS\\DLP_Storage'],
 ['codecs'],
 ['E:\\coder\\AIS\\DLP_Storage\\venv\\lib\\site-packages\\_pyinstaller_hooks_contrib\\hooks\\stdhooks',
  'E:\\coder\\AIS\\DLP_Storage\\venv\\lib\\site-packages\\_pyinstaller_hooks_contrib\\hooks\\stdhooks\\__pycache__',
  'E:\\coder\\AIS\\DLP_Storage\\venv\\lib\\site-packages\\_pyinstaller_hooks_contrib\\hooks\\rthooks',
  'E:\\coder\\AIS\\DLP_Storage\\venv\\lib\\site-packages\\_pyinstaller_hooks_contrib\\hooks\\rthooks\\__pycache__',
  'E:\\coder\\AIS\\DLP_Storage\\venv\\lib\\site-packages\\_pyinstaller_hooks_contrib\\hooks'],
 {},
 [],
 [],
 False,
 False,
 False,
 '3.10.1 (tags/v3.10.1:2cd268a, Dec  6 2021, 19:10:37) [MSC v.1929 64 bit '
 '(AMD64)]',
 [('pyi_rth_subprocess',
   'E:\\coder\\AIS\\DLP_Storage\\venv\\Lib\\site-packages\\PyInstaller\\hooks\\rthooks\\pyi_rth_subprocess.py',
   'PYSOURCE'),
  ('pyi_rth_inspect',
   'E:\\coder\\AIS\\DLP_Storage\\venv\\Lib\\site-packages\\PyInstaller\\hooks\\rthooks\\pyi_rth_inspect.py',
   'PYSOURCE'),
  ('pyi_rth_pkgutil',
   'E:\\coder\\AIS\\DLP_Storage\\venv\\Lib\\site-packages\\PyInstaller\\hooks\\rthooks\\pyi_rth_pkgutil.py',
   'PYSOURCE'),
  ('pyi_rth_multiprocessing',
   'E:\\coder\\AIS\\DLP_Storage\\venv\\Lib\\site-packages\\PyInstaller\\hooks\\rthooks\\pyi_rth_multiprocessing.py',
   'PYSOURCE'),
  ('main', 'E:\\coder\\AIS\\DLP_Storage\\main.py', 'PYSOURCE')],
 [('multiprocessing.popen_spawn_posix',
   'C:\\Python310\\lib\\multiprocessing\\popen_spawn_posix.py',
   'PYMODULE'),
  ('multiprocessing.resource_tracker',
   'C:\\Python310\\lib\\multiprocessing\\resource_tracker.py',
   'PYMODULE'),
  ('threading', 'C:\\Python310\\lib\\threading.py', 'PYMODULE'),
  ('_threading_local', 'C:\\Python310\\lib\\_threading_local.py', 'PYMODULE'),
  ('contextlib', 'C:\\Python310\\lib\\contextlib.py', 'PYMODULE'),
  ('_strptime', 'C:\\Python310\\lib\\_strptime.py', 'PYMODULE'),
  ('datetime', 'C:\\Python310\\lib\\datetime.py', 'PYMODULE'),
  ('calendar', 'C:\\Python310\\lib\\calendar.py', 'PYMODULE'),
  ('argparse', 'C:\\Python310\\lib\\argparse.py', 'PYMODULE'),
  ('textwrap', 'C:\\Python310\\lib\\textwrap.py', 'PYMODULE'),
  ('shutil', 'C:\\Python310\\lib\\shutil.py', 'PYMODULE'),
  ('zipfile', 'C:\\Python310\\lib\\zipfile.py', 'PYMODULE'),
  ('py_compile', 'C:\\Python310\\lib\\py_compile.py', 'PYMODULE'),
  ('ntpath', 'C:\\Python310\\lib\\ntpath.py', 'PYMODULE'),
  ('string', 'C:\\Python310\\lib\\string.py', 'PYMODULE'),
  ('genericpath', 'C:\\Python310\\lib\\genericpath.py', 'PYMODULE'),
  ('importlib.machinery',
   'C:\\Python310\\lib\\importlib\\machinery.py',
   'PYMODULE'),
  ('importlib', 'C:\\Python310\\lib\\importlib\\__init__.py', 'PYMODULE'),
  ('importlib.abc', 'C:\\Python310\\lib\\importlib\\abc.py', 'PYMODULE'),
  ('typing', 'C:\\Python310\\lib\\typing.py', 'PYMODULE'),
  ('importlib._abc', 'C:\\Python310\\lib\\importlib\\_abc.py', 'PYMODULE'),
  ('importlib._bootstrap',
   'C:\\Python310\\lib\\importlib\\_bootstrap.py',
   'PYMODULE'),
  ('importlib._bootstrap_external',
   'C:\\Python310\\lib\\importlib\\_bootstrap_external.py',
   'PYMODULE'),
  ('importlib.metadata',
   'C:\\Python310\\lib\\importlib\\metadata\\__init__.py',
   'PYMODULE'),
  ('importlib.metadata._itertools',
   'C:\\Python310\\lib\\importlib\\metadata\\_itertools.py',
   'PYMODULE'),
  ('importlib.metadata._functools',
   'C:\\Python310\\lib\\importlib\\metadata\\_functools.py',
   'PYMODULE'),
  ('importlib.metadata._collections',
   'C:\\Python310\\lib\\importlib\\metadata\\_collections.py',
   'PYMODULE'),
  ('importlib.metadata._meta',
   'C:\\Python310\\lib\\importlib\\metadata\\_meta.py',
   'PYMODULE'),
  ('importlib.metadata._adapters',
   'C:\\Python310\\lib\\importlib\\metadata\\_adapters.py',
   'PYMODULE'),
  ('importlib.metadata._text',
   'C:\\Python310\\lib\\importlib\\metadata\\_text.py',
   'PYMODULE'),
  ('email.message', 'C:\\Python310\\lib\\email\\message.py', 'PYMODULE'),
  ('email.policy', 'C:\\Python310\\lib\\email\\policy.py', 'PYMODULE'),
  ('email.contentmanager',
   'C:\\Python310\\lib\\email\\contentmanager.py',
   'PYMODULE'),
  ('email.quoprimime', 'C:\\Python310\\lib\\email\\quoprimime.py', 'PYMODULE'),
  ('email.headerregistry',
   'C:\\Python310\\lib\\email\\headerregistry.py',
   'PYMODULE'),
  ('email._header_value_parser',
   'C:\\Python310\\lib\\email\\_header_value_parser.py',
   'PYMODULE'),
  ('urllib', 'C:\\Python310\\lib\\urllib\\__init__.py', 'PYMODULE'),
  ('email.iterators', 'C:\\Python310\\lib\\email\\iterators.py', 'PYMODULE'),
  ('email.generator', 'C:\\Python310\\lib\\email\\generator.py', 'PYMODULE'),
  ('random', 'C:\\Python310\\lib\\random.py', 'PYMODULE'),
  ('statistics', 'C:\\Python310\\lib\\statistics.py', 'PYMODULE'),
  ('decimal', 'C:\\Python310\\lib\\decimal.py', 'PYMODULE'),
  ('_pydecimal', 'C:\\Python310\\lib\\_pydecimal.py', 'PYMODULE'),
  ('contextvars', 'C:\\Python310\\lib\\contextvars.py', 'PYMODULE'),
  ('fractions', 'C:\\Python310\\lib\\fractions.py', 'PYMODULE'),
  ('numbers', 'C:\\Python310\\lib\\numbers.py', 'PYMODULE'),
  ('hashlib', 'C:\\Python310\\lib\\hashlib.py', 'PYMODULE'),
  ('logging', 'C:\\Python310\\lib\\logging\\__init__.py', 'PYMODULE'),
  ('pickle', 'C:\\Python310\\lib\\pickle.py', 'PYMODULE'),
  ('pprint', 'C:\\Python310\\lib\\pprint.py', 'PYMODULE'),
  ('dataclasses', 'C:\\Python310\\lib\\dataclasses.py', 'PYMODULE'),
  ('inspect', 'C:\\Python310\\lib\\inspect.py', 'PYMODULE'),
  ('token', 'C:\\Python310\\lib\\token.py', 'PYMODULE'),
  ('dis', 'C:\\Python310\\lib\\dis.py', 'PYMODULE'),
  ('opcode', 'C:\\Python310\\lib\\opcode.py', 'PYMODULE'),
  ('ast', 'C:\\Python310\\lib\\ast.py', 'PYMODULE'),
  ('_compat_pickle', 'C:\\Python310\\lib\\_compat_pickle.py', 'PYMODULE'),
  ('bisect', 'C:\\Python310\\lib\\bisect.py', 'PYMODULE'),
  ('email._encoded_words',
   'C:\\Python310\\lib\\email\\_encoded_words.py',
   'PYMODULE'),
  ('base64', 'C:\\Python310\\lib\\base64.py', 'PYMODULE'),
  ('getopt', 'C:\\Python310\\lib\\getopt.py', 'PYMODULE'),
  ('email.charset', 'C:\\Python310\\lib\\email\\charset.py', 'PYMODULE'),
  ('email.encoders', 'C:\\Python310\\lib\\email\\encoders.py', 'PYMODULE'),
  ('email.base64mime', 'C:\\Python310\\lib\\email\\base64mime.py', 'PYMODULE'),
  ('email._policybase',
   'C:\\Python310\\lib\\email\\_policybase.py',
   'PYMODULE'),
  ('email.header', 'C:\\Python310\\lib\\email\\header.py', 'PYMODULE'),
  ('email.errors', 'C:\\Python310\\lib\\email\\errors.py', 'PYMODULE'),
  ('email.utils', 'C:\\Python310\\lib\\email\\utils.py', 'PYMODULE'),
  ('email._parseaddr', 'C:\\Python310\\lib\\email\\_parseaddr.py', 'PYMODULE'),
  ('urllib.parse', 'C:\\Python310\\lib\\urllib\\parse.py', 'PYMODULE'),
  ('socket', 'C:\\Python310\\lib\\socket.py', 'PYMODULE'),
  ('selectors', 'C:\\Python310\\lib\\selectors.py', 'PYMODULE'),
  ('quopri', 'C:\\Python310\\lib\\quopri.py', 'PYMODULE'),
  ('uu', 'C:\\Python310\\lib\\uu.py', 'PYMODULE'),
  ('optparse', 'C:\\Python310\\lib\\optparse.py', 'PYMODULE'),
  ('email', 'C:\\Python310\\lib\\email\\__init__.py', 'PYMODULE'),
  ('email.parser', 'C:\\Python310\\lib\\email\\parser.py', 'PYMODULE'),
  ('email.feedparser', 'C:\\Python310\\lib\\email\\feedparser.py', 'PYMODULE'),
  ('csv', 'C:\\Python310\\lib\\csv.py', 'PYMODULE'),
  ('importlib.readers',
   'C:\\Python310\\lib\\importlib\\readers.py',
   'PYMODULE'),
  ('pathlib', 'C:\\Python310\\lib\\pathlib.py', 'PYMODULE'),
  ('struct', 'C:\\Python310\\lib\\struct.py', 'PYMODULE'),
  ('posixpath', 'C:\\Python310\\lib\\posixpath.py', 'PYMODULE'),
  ('importlib.util', 'C:\\Python310\\lib\\importlib\\util.py', 'PYMODULE'),
  ('tarfile', 'C:\\Python310\\lib\\tarfile.py', 'PYMODULE'),
  ('gzip', 'C:\\Python310\\lib\\gzip.py', 'PYMODULE'),
  ('_compression', 'C:\\Python310\\lib\\_compression.py', 'PYMODULE'),
  ('lzma', 'C:\\Python310\\lib\\lzma.py', 'PYMODULE'),
  ('bz2', 'C:\\Python310\\lib\\bz2.py', 'PYMODULE'),
  ('fnmatch', 'C:\\Python310\\lib\\fnmatch.py', 'PYMODULE'),
  ('stat', 'C:\\Python310\\lib\\stat.py', 'PYMODULE'),
  ('copy', 'C:\\Python310\\lib\\copy.py', 'PYMODULE'),
  ('gettext', 'C:\\Python310\\lib\\gettext.py', 'PYMODULE'),
  ('signal', 'C:\\Python310\\lib\\signal.py', 'PYMODULE'),
  ('multiprocessing.util',
   'C:\\Python310\\lib\\multiprocessing\\util.py',
   'PYMODULE'),
  ('multiprocessing.forkserver',
   'C:\\Python310\\lib\\multiprocessing\\forkserver.py',
   'PYMODULE'),
  ('multiprocessing.connection',
   'C:\\Python310\\lib\\multiprocessing\\connection.py',
   'PYMODULE'),
  ('multiprocessing.resource_sharer',
   'C:\\Python310\\lib\\multiprocessing\\resource_sharer.py',
   'PYMODULE'),
  ('xmlrpc.client', 'C:\\Python310\\lib\\xmlrpc\\client.py', 'PYMODULE'),
  ('xmlrpc', 'C:\\Python310\\lib\\xmlrpc\\__init__.py', 'PYMODULE'),
  ('xml.parsers.expat',
   'C:\\Python310\\lib\\xml\\parsers\\expat.py',
   'PYMODULE'),
  ('xml.parsers', 'C:\\Python310\\lib\\xml\\parsers\\__init__.py', 'PYMODULE'),
  ('xml', 'C:\\Python310\\lib\\xml\\__init__.py', 'PYMODULE'),
  ('xml.sax.expatreader',
   'C:\\Python310\\lib\\xml\\sax\\expatreader.py',
   'PYMODULE'),
  ('xml.sax.saxutils', 'C:\\Python310\\lib\\xml\\sax\\saxutils.py', 'PYMODULE'),
  ('urllib.request', 'C:\\Python310\\lib\\urllib\\request.py', 'PYMODULE'),
  ('getpass', 'C:\\Python310\\lib\\getpass.py', 'PYMODULE'),
  ('nturl2path', 'C:\\Python310\\lib\\nturl2path.py', 'PYMODULE'),
  ('ftplib', 'C:\\Python310\\lib\\ftplib.py', 'PYMODULE'),
  ('netrc', 'C:\\Python310\\lib\\netrc.py', 'PYMODULE'),
  ('shlex', 'C:\\Python310\\lib\\shlex.py', 'PYMODULE'),
  ('mimetypes', 'C:\\Python310\\lib\\mimetypes.py', 'PYMODULE'),
  ('http.cookiejar', 'C:\\Python310\\lib\\http\\cookiejar.py', 'PYMODULE'),
  ('http', 'C:\\Python310\\lib\\http\\__init__.py', 'PYMODULE'),
  ('ssl', 'C:\\Python310\\lib\\ssl.py', 'PYMODULE'),
  ('urllib.response', 'C:\\Python310\\lib\\urllib\\response.py', 'PYMODULE'),
  ('urllib.error', 'C:\\Python310\\lib\\urllib\\error.py', 'PYMODULE'),
  ('xml.sax', 'C:\\Python310\\lib\\xml\\sax\\__init__.py', 'PYMODULE'),
  ('xml.sax.handler', 'C:\\Python310\\lib\\xml\\sax\\handler.py', 'PYMODULE'),
  ('xml.sax._exceptions',
   'C:\\Python310\\lib\\xml\\sax\\_exceptions.py',
   'PYMODULE'),
  ('xml.sax.xmlreader',
   'C:\\Python310\\lib\\xml\\sax\\xmlreader.py',
   'PYMODULE'),
  ('http.client', 'C:\\Python310\\lib\\http\\client.py', 'PYMODULE'),
  ('hmac', 'C:\\Python310\\lib\\hmac.py', 'PYMODULE'),
  ('tempfile', 'C:\\Python310\\lib\\tempfile.py', 'PYMODULE'),
  ('multiprocessing.process',
   'C:\\Python310\\lib\\multiprocessing\\process.py',
   'PYMODULE'),
  ('multiprocessing.context',
   'C:\\Python310\\lib\\multiprocessing\\context.py',
   'PYMODULE'),
  ('multiprocessing.popen_forkserver',
   'C:\\Python310\\lib\\multiprocessing\\popen_forkserver.py',
   'PYMODULE'),
  ('multiprocessing.sharedctypes',
   'C:\\Python310\\lib\\multiprocessing\\sharedctypes.py',
   'PYMODULE'),
  ('multiprocessing.heap',
   'C:\\Python310\\lib\\multiprocessing\\heap.py',
   'PYMODULE'),
  ('ctypes', 'C:\\Python310\\lib\\ctypes\\__init__.py', 'PYMODULE'),
  ('ctypes._endian', 'C:\\Python310\\lib\\ctypes\\_endian.py', 'PYMODULE'),
  ('multiprocessing.pool',
   'C:\\Python310\\lib\\multiprocessing\\pool.py',
   'PYMODULE'),
  ('multiprocessing.dummy',
   'C:\\Python310\\lib\\multiprocessing\\dummy\\__init__.py',
   'PYMODULE'),
  ('multiprocessing.dummy.connection',
   'C:\\Python310\\lib\\multiprocessing\\dummy\\connection.py',
   'PYMODULE'),
  ('queue', 'C:\\Python310\\lib\\queue.py', 'PYMODULE'),
  ('multiprocessing.queues',
   'C:\\Python310\\lib\\multiprocessing\\queues.py',
   'PYMODULE'),
  ('multiprocessing.synchronize',
   'C:\\Python310\\lib\\multiprocessing\\synchronize.py',
   'PYMODULE'),
  ('multiprocessing.managers',
   'C:\\Python310\\lib\\multiprocessing\\managers.py',
   'PYMODULE'),
  ('multiprocessing.shared_memory',
   'C:\\Python310\\lib\\multiprocessing\\shared_memory.py',
   'PYMODULE'),
  ('secrets', 'C:\\Python310\\lib\\secrets.py', 'PYMODULE'),
  ('multiprocessing.reduction',
   'C:\\Python310\\lib\\multiprocessing\\reduction.py',
   'PYMODULE'),
  ('multiprocessing.popen_fork',
   'C:\\Python310\\lib\\multiprocessing\\popen_fork.py',
   'PYMODULE'),
  ('multiprocessing.popen_spawn_win32',
   'C:\\Python310\\lib\\multiprocessing\\popen_spawn_win32.py',
   'PYMODULE'),
  ('subprocess', 'C:\\Python310\\lib\\subprocess.py', 'PYMODULE'),
  ('os', 'C:\\Python310\\lib\\os.py', 'PYMODULE'),
  ('multiprocessing.spawn',
   'C:\\Python310\\lib\\multiprocessing\\spawn.py',
   'PYMODULE'),
  ('runpy', 'C:\\Python310\\lib\\runpy.py', 'PYMODULE'),
  ('pkgutil', 'C:\\Python310\\lib\\pkgutil.py', 'PYMODULE'),
  ('zipimport', 'C:\\Python310\\lib\\zipimport.py', 'PYMODULE'),
  ('multiprocessing',
   'C:\\Python310\\lib\\multiprocessing\\__init__.py',
   'PYMODULE'),
  ('stringprep', 'C:\\Python310\\lib\\stringprep.py', 'PYMODULE'),
  ('_py_abc', 'C:\\Python310\\lib\\_py_abc.py', 'PYMODULE'),
  ('tracemalloc', 'C:\\Python310\\lib\\tracemalloc.py', 'PYMODULE'),
  ('read_docx', 'E:\\coder\\AIS\\DLP_Storage\\read_docx.py', 'PYMODULE'),
  ('docx',
   'E:\\coder\\AIS\\DLP_Storage\\venv\\lib\\site-packages\\docx\\__init__.py',
   'PYMODULE'),
  ('docx.parts.styles',
   'E:\\coder\\AIS\\DLP_Storage\\venv\\lib\\site-packages\\docx\\parts\\styles.py',
   'PYMODULE'),
  ('docx.parts',
   'E:\\coder\\AIS\\DLP_Storage\\venv\\lib\\site-packages\\docx\\parts\\__init__.py',
   'PYMODULE'),
  ('docx.styles.styles',
   'E:\\coder\\AIS\\DLP_Storage\\venv\\lib\\site-packages\\docx\\styles\\styles.py',
   'PYMODULE'),
  ('docx.styles.style',
   'E:\\coder\\AIS\\DLP_Storage\\venv\\lib\\site-packages\\docx\\styles\\style.py',
   'PYMODULE'),
  ('docx.text.parfmt',
   'E:\\coder\\AIS\\DLP_Storage\\venv\\lib\\site-packages\\docx\\text\\parfmt.py',
   'PYMODULE'),
  ('docx.text',
   'E:\\coder\\AIS\\DLP_Storage\\venv\\lib\\site-packages\\docx\\text\\__init__.py',
   'PYMODULE'),
  ('docx.text.tabstops',
   'E:\\coder\\AIS\\DLP_Storage\\venv\\lib\\site-packages\\docx\\text\\tabstops.py',
   'PYMODULE'),
  ('docx.enum.text',
   'E:\\coder\\AIS\\DLP_Storage\\venv\\lib\\site-packages\\docx\\enum\\text.py',
   'PYMODULE'),
  ('docx.enum',
   'E:\\coder\\AIS\\DLP_Storage\\venv\\lib\\site-packages\\docx\\enum\\__init__.py',
   'PYMODULE'),
  ('docx.enum.base',
   'E:\\coder\\AIS\\DLP_Storage\\venv\\lib\\site-packages\\docx\\enum\\base.py',
   'PYMODULE'),
  ('docx.exceptions',
   'E:\\coder\\AIS\\DLP_Storage\\venv\\lib\\site-packages\\docx\\exceptions.py',
   'PYMODULE'),
  ('docx.text.font',
   'E:\\coder\\AIS\\DLP_Storage\\venv\\lib\\site-packages\\docx\\text\\font.py',
   'PYMODULE'),
  ('docx.dml.color',
   'E:\\coder\\AIS\\DLP_Storage\\venv\\lib\\site-packages\\docx\\dml\\color.py',
   'PYMODULE'),
  ('docx.dml',
   'E:\\coder\\AIS\\DLP_Storage\\venv\\lib\\site-packages\\docx\\dml\\__init__.py',
   'PYMODULE'),
  ('docx.oxml.simpletypes',
   'E:\\coder\\AIS\\DLP_Storage\\venv\\lib\\site-packages\\docx\\oxml\\simpletypes.py',
   'PYMODULE'),
  ('docx.enum.dml',
   'E:\\coder\\AIS\\DLP_Storage\\venv\\lib\\site-packages\\docx\\enum\\dml.py',
   'PYMODULE'),
  ('docx.enum.style',
   'E:\\coder\\AIS\\DLP_Storage\\venv\\lib\\site-packages\\docx\\enum\\style.py',
   'PYMODULE'),
  ('docx.styles.latent',
   'E:\\coder\\AIS\\DLP_Storage\\venv\\lib\\site-packages\\docx\\styles\\latent.py',
   'PYMODULE'),
  ('docx.styles',
   'E:\\coder\\AIS\\DLP_Storage\\venv\\lib\\site-packages\\docx\\styles\\__init__.py',
   'PYMODULE'),
  ('docx.shared',
   'E:\\coder\\AIS\\DLP_Storage\\venv\\lib\\site-packages\\docx\\shared.py',
   'PYMODULE'),
  ('docx.oxml',
   'E:\\coder\\AIS\\DLP_Storage\\venv\\lib\\site-packages\\docx\\oxml\\__init__.py',
   'PYMODULE'),
  ('docx.oxml.text.run',
   'E:\\coder\\AIS\\DLP_Storage\\venv\\lib\\site-packages\\docx\\oxml\\text\\run.py',
   'PYMODULE'),
  ('docx.oxml.text',
   'E:\\coder\\AIS\\DLP_Storage\\venv\\lib\\site-packages\\docx\\oxml\\text\\__init__.py',
   'PYMODULE'),
  ('docx.oxml.xmlchemy',
   'E:\\coder\\AIS\\DLP_Storage\\venv\\lib\\site-packages\\docx\\oxml\\xmlchemy.py',
   'PYMODULE'),
  ('docx.oxml.exceptions',
   'E:\\coder\\AIS\\DLP_Storage\\venv\\lib\\site-packages\\docx\\oxml\\exceptions.py',
   'PYMODULE'),
  ('docx.compat',
   'E:\\coder\\AIS\\DLP_Storage\\venv\\lib\\site-packages\\docx\\compat.py',
   'PYMODULE'),
  ('docx.oxml.text.parfmt',
   'E:\\coder\\AIS\\DLP_Storage\\venv\\lib\\site-packages\\docx\\oxml\\text\\parfmt.py',
   'PYMODULE'),
  ('docx.oxml.text.paragraph',
   'E:\\coder\\AIS\\DLP_Storage\\venv\\lib\\site-packages\\docx\\oxml\\text\\paragraph.py',
   'PYMODULE'),
  ('docx.oxml.text.font',
   'E:\\coder\\AIS\\DLP_Storage\\venv\\lib\\site-packages\\docx\\oxml\\text\\font.py',
   'PYMODULE'),
  ('docx.oxml.table',
   'E:\\coder\\AIS\\DLP_Storage\\venv\\lib\\site-packages\\docx\\oxml\\table.py',
   'PYMODULE'),
  ('docx.enum.table',
   'E:\\coder\\AIS\\DLP_Storage\\venv\\lib\\site-packages\\docx\\enum\\table.py',
   'PYMODULE'),
  ('docx.oxml.styles',
   'E:\\coder\\AIS\\DLP_Storage\\venv\\lib\\site-packages\\docx\\oxml\\styles.py',
   'PYMODULE'),
  ('docx.oxml.shape',
   'E:\\coder\\AIS\\DLP_Storage\\venv\\lib\\site-packages\\docx\\oxml\\shape.py',
   'PYMODULE'),
  ('docx.oxml.settings',
   'E:\\coder\\AIS\\DLP_Storage\\venv\\lib\\site-packages\\docx\\oxml\\settings.py',
   'PYMODULE'),
  ('docx.oxml.section',
   'E:\\coder\\AIS\\DLP_Storage\\venv\\lib\\site-packages\\docx\\oxml\\section.py',
   'PYMODULE'),
  ('docx.enum.section',
   'E:\\coder\\AIS\\DLP_Storage\\venv\\lib\\site-packages\\docx\\enum\\section.py',
   'PYMODULE'),
  ('docx.oxml.numbering',
   'E:\\coder\\AIS\\DLP_Storage\\venv\\lib\\site-packages\\docx\\oxml\\numbering.py',
   'PYMODULE'),
  ('docx.oxml.document',
   'E:\\coder\\AIS\\DLP_Storage\\venv\\lib\\site-packages\\docx\\oxml\\document.py',
   'PYMODULE'),
  ('docx.oxml.coreprops',
   'E:\\coder\\AIS\\DLP_Storage\\venv\\lib\\site-packages\\docx\\oxml\\coreprops.py',
   'PYMODULE'),
  ('docx.oxml.shared',
   'E:\\coder\\AIS\\DLP_Storage\\venv\\lib\\site-packages\\docx\\oxml\\shared.py',
   'PYMODULE'),
  ('docx.oxml.ns',
   'E:\\coder\\AIS\\DLP_Storage\\venv\\lib\\site-packages\\docx\\oxml\\ns.py',
   'PYMODULE'),
  ('lxml',
   'E:\\coder\\AIS\\DLP_Storage\\venv\\lib\\site-packages\\lxml\\__init__.py',
   'PYMODULE'),
  ('lxml.includes.libexslt',
   'E:\\coder\\AIS\\DLP_Storage\\venv\\lib\\site-packages\\lxml\\includes\\libexslt\\__init__.py',
   'PYMODULE'),
  ('lxml.html.soupparser',
   'E:\\coder\\AIS\\DLP_Storage\\venv\\lib\\site-packages\\lxml\\html\\soupparser.py',
   'PYMODULE'),
  ('html.entities', 'C:\\Python310\\lib\\html\\entities.py', 'PYMODULE'),
  ('html', 'C:\\Python310\\lib\\html\\__init__.py', 'PYMODULE'),
  ('bs4',
   'E:\\coder\\AIS\\DLP_Storage\\venv\\lib\\site-packages\\bs4\\__init__.py',
   'PYMODULE'),
  ('bs4.element',
   'E:\\coder\\AIS\\DLP_Storage\\venv\\lib\\site-packages\\bs4\\element.py',
   'PYMODULE'),
  ('bs4.formatter',
   'E:\\coder\\AIS\\DLP_Storage\\venv\\lib\\site-packages\\bs4\\formatter.py',
   'PYMODULE'),
  ('soupsieve',
   'E:\\coder\\AIS\\DLP_Storage\\venv\\lib\\site-packages\\soupsieve\\__init__.py',
   'PYMODULE'),
  ('soupsieve.css_parser',
   'E:\\coder\\AIS\\DLP_Storage\\venv\\lib\\site-packages\\soupsieve\\css_parser.py',
   'PYMODULE'),
  ('soupsieve.css_match',
   'E:\\coder\\AIS\\DLP_Storage\\venv\\lib\\site-packages\\soupsieve\\css_match.py',
   'PYMODULE'),
  ('soupsieve.css_types',
   'E:\\coder\\AIS\\DLP_Storage\\venv\\lib\\site-packages\\soupsieve\\css_types.py',
   'PYMODULE'),
  ('soupsieve.pretty',
   'E:\\coder\\AIS\\DLP_Storage\\venv\\lib\\site-packages\\soupsieve\\pretty.py',
   'PYMODULE'),
  ('soupsieve.util',
   'E:\\coder\\AIS\\DLP_Storage\\venv\\lib\\site-packages\\soupsieve\\util.py',
   'PYMODULE'),
  ('soupsieve.__meta__',
   'E:\\coder\\AIS\\DLP_Storage\\venv\\lib\\site-packages\\soupsieve\\__meta__.py',
   'PYMODULE'),
  ('bs4.dammit',
   'E:\\coder\\AIS\\DLP_Storage\\venv\\lib\\site-packages\\bs4\\dammit.py',
   'PYMODULE'),
  ('chardet',
   'E:\\coder\\AIS\\DLP_Storage\\venv\\lib\\site-packages\\chardet\\__init__.py',
   'PYMODULE'),
  ('chardet.version',
   'E:\\coder\\AIS\\DLP_Storage\\venv\\lib\\site-packages\\chardet\\version.py',
   'PYMODULE'),
  ('chardet.universaldetector',
   'E:\\coder\\AIS\\DLP_Storage\\venv\\lib\\site-packages\\chardet\\universaldetector.py',
   'PYMODULE'),
  ('chardet.sbcsgroupprober',
   'E:\\coder\\AIS\\DLP_Storage\\venv\\lib\\site-packages\\chardet\\sbcsgroupprober.py',
   'PYMODULE'),
  ('chardet.langturkishmodel',
   'E:\\coder\\AIS\\DLP_Storage\\venv\\lib\\site-packages\\chardet\\langturkishmodel.py',
   'PYMODULE'),
  ('chardet.hebrewprober',
   'E:\\coder\\AIS\\DLP_Storage\\venv\\lib\\site-packages\\chardet\\hebrewprober.py',
   'PYMODULE'),
  ('chardet.charsetprober',
   'E:\\coder\\AIS\\DLP_Storage\\venv\\lib\\site-packages\\chardet\\charsetprober.py',
   'PYMODULE'),
  ('chardet.langhebrewmodel',
   'E:\\coder\\AIS\\DLP_Storage\\venv\\lib\\site-packages\\chardet\\langhebrewmodel.py',
   'PYMODULE'),
  ('chardet.langthaimodel',
   'E:\\coder\\AIS\\DLP_Storage\\venv\\lib\\site-packages\\chardet\\langthaimodel.py',
   'PYMODULE'),
  ('chardet.langbulgarianmodel',
   'E:\\coder\\AIS\\DLP_Storage\\venv\\lib\\site-packages\\chardet\\langbulgarianmodel.py',
   'PYMODULE'),
  ('chardet.langgreekmodel',
   'E:\\coder\\AIS\\DLP_Storage\\venv\\lib\\site-packages\\chardet\\langgreekmodel.py',
   'PYMODULE'),
  ('chardet.langcyrillicmodel',
   'E:\\coder\\AIS\\DLP_Storage\\venv\\lib\\site-packages\\chardet\\langcyrillicmodel.py',
   'PYMODULE'),
  ('chardet.sbcharsetprober',
   'E:\\coder\\AIS\\DLP_Storage\\venv\\lib\\site-packages\\chardet\\sbcharsetprober.py',
   'PYMODULE'),
  ('chardet.mbcsgroupprober',
   'E:\\coder\\AIS\\DLP_Storage\\venv\\lib\\site-packages\\chardet\\mbcsgroupprober.py',
   'PYMODULE'),
  ('chardet.euctwprober',
   'E:\\coder\\AIS\\DLP_Storage\\venv\\lib\\site-packages\\chardet\\euctwprober.py',
   'PYMODULE'),
  ('chardet.mbcssm',
   'E:\\coder\\AIS\\DLP_Storage\\venv\\lib\\site-packages\\chardet\\mbcssm.py',
   'PYMODULE'),
  ('chardet.chardistribution',
   'E:\\coder\\AIS\\DLP_Storage\\venv\\lib\\site-packages\\chardet\\chardistribution.py',
   'PYMODULE'),
  ('chardet.jisfreq',
   'E:\\coder\\AIS\\DLP_Storage\\venv\\lib\\site-packages\\chardet\\jisfreq.py',
   'PYMODULE'),
  ('chardet.big5freq',
   'E:\\coder\\AIS\\DLP_Storage\\venv\\lib\\site-packages\\chardet\\big5freq.py',
   'PYMODULE'),
  ('chardet.gb2312freq',
   'E:\\coder\\AIS\\DLP_Storage\\venv\\lib\\site-packages\\chardet\\gb2312freq.py',
   'PYMODULE'),
  ('chardet.euckrfreq',
   'E:\\coder\\AIS\\DLP_Storage\\venv\\lib\\site-packages\\chardet\\euckrfreq.py',
   'PYMODULE'),
  ('chardet.euctwfreq',
   'E:\\coder\\AIS\\DLP_Storage\\venv\\lib\\site-packages\\chardet\\euctwfreq.py',
   'PYMODULE'),
  ('chardet.codingstatemachine',
   'E:\\coder\\AIS\\DLP_Storage\\venv\\lib\\site-packages\\chardet\\codingstatemachine.py',
   'PYMODULE'),
  ('chardet.mbcharsetprober',
   'E:\\coder\\AIS\\DLP_Storage\\venv\\lib\\site-packages\\chardet\\mbcharsetprober.py',
   'PYMODULE'),
  ('chardet.big5prober',
   'E:\\coder\\AIS\\DLP_Storage\\venv\\lib\\site-packages\\chardet\\big5prober.py',
   'PYMODULE'),
  ('chardet.cp949prober',
   'E:\\coder\\AIS\\DLP_Storage\\venv\\lib\\site-packages\\chardet\\cp949prober.py',
   'PYMODULE'),
  ('chardet.euckrprober',
   'E:\\coder\\AIS\\DLP_Storage\\venv\\lib\\site-packages\\chardet\\euckrprober.py',
   'PYMODULE'),
  ('chardet.gb2312prober',
   'E:\\coder\\AIS\\DLP_Storage\\venv\\lib\\site-packages\\chardet\\gb2312prober.py',
   'PYMODULE'),
  ('chardet.eucjpprober',
   'E:\\coder\\AIS\\DLP_Storage\\venv\\lib\\site-packages\\chardet\\eucjpprober.py',
   'PYMODULE'),
  ('chardet.jpcntx',
   'E:\\coder\\AIS\\DLP_Storage\\venv\\lib\\site-packages\\chardet\\jpcntx.py',
   'PYMODULE'),
  ('chardet.sjisprober',
   'E:\\coder\\AIS\\DLP_Storage\\venv\\lib\\site-packages\\chardet\\sjisprober.py',
   'PYMODULE'),
  ('chardet.utf8prober',
   'E:\\coder\\AIS\\DLP_Storage\\venv\\lib\\site-packages\\chardet\\utf8prober.py',
   'PYMODULE'),
  ('chardet.latin1prober',
   'E:\\coder\\AIS\\DLP_Storage\\venv\\lib\\site-packages\\chardet\\latin1prober.py',
   'PYMODULE'),
  ('chardet.escprober',
   'E:\\coder\\AIS\\DLP_Storage\\venv\\lib\\site-packages\\chardet\\escprober.py',
   'PYMODULE'),
  ('chardet.escsm',
   'E:\\coder\\AIS\\DLP_Storage\\venv\\lib\\site-packages\\chardet\\escsm.py',
   'PYMODULE'),
  ('chardet.enums',
   'E:\\coder\\AIS\\DLP_Storage\\venv\\lib\\site-packages\\chardet\\enums.py',
   'PYMODULE'),
  ('chardet.charsetgroupprober',
   'E:\\coder\\AIS\\DLP_Storage\\venv\\lib\\site-packages\\chardet\\charsetgroupprober.py',
   'PYMODULE'),
  ('chardet.compat',
   'E:\\coder\\AIS\\DLP_Storage\\venv\\lib\\site-packages\\chardet\\compat.py',
   'PYMODULE'),
  ('bs4.builder',
   'E:\\coder\\AIS\\DLP_Storage\\venv\\lib\\site-packages\\bs4\\builder\\__init__.py',
   'PYMODULE'),
  ('bs4.builder._lxml',
   'E:\\coder\\AIS\\DLP_Storage\\venv\\lib\\site-packages\\bs4\\builder\\_lxml.py',
   'PYMODULE'),
  ('bs4.builder._html5lib',
   'E:\\coder\\AIS\\DLP_Storage\\venv\\lib\\site-packages\\bs4\\builder\\_html5lib.py',
   'PYMODULE'),
  ('bs4.builder._htmlparser',
   'E:\\coder\\AIS\\DLP_Storage\\venv\\lib\\site-packages\\bs4\\builder\\_htmlparser.py',
   'PYMODULE'),
  ('html.parser', 'C:\\Python310\\lib\\html\\parser.py', 'PYMODULE'),
  ('_markupbase', 'C:\\Python310\\lib\\_markupbase.py', 'PYMODULE'),
  ('lxml.html.defs',
   'E:\\coder\\AIS\\DLP_Storage\\venv\\lib\\site-packages\\lxml\\html\\defs.py',
   'PYMODULE'),
  ('lxml.html._html5builder',
   'E:\\coder\\AIS\\DLP_Storage\\venv\\lib\\site-packages\\lxml\\html\\_html5builder.py',
   'PYMODULE'),
  ('lxml.html.html5parser',
   'E:\\coder\\AIS\\DLP_Storage\\venv\\lib\\site-packages\\lxml\\html\\html5parser.py',
   'PYMODULE'),
  ('lxml.includes.libxml',
   'E:\\coder\\AIS\\DLP_Storage\\venv\\lib\\site-packages\\lxml\\includes\\libxml\\__init__.py',
   'PYMODULE'),
  ('lxml.isoschematron',
   'E:\\coder\\AIS\\DLP_Storage\\venv\\lib\\site-packages\\lxml\\isoschematron\\__init__.py',
   'PYMODULE'),
  ('lxml.includes',
   'E:\\coder\\AIS\\DLP_Storage\\venv\\lib\\site-packages\\lxml\\includes\\__init__.py',
   'PYMODULE'),
  ('lxml.ElementInclude',
   'E:\\coder\\AIS\\DLP_Storage\\venv\\lib\\site-packages\\lxml\\ElementInclude.py',
   'PYMODULE'),
  ('lxml.cssselect',
   'E:\\coder\\AIS\\DLP_Storage\\venv\\lib\\site-packages\\lxml\\cssselect.py',
   'PYMODULE'),
  ('lxml.html.builder',
   'E:\\coder\\AIS\\DLP_Storage\\venv\\lib\\site-packages\\lxml\\html\\builder.py',
   'PYMODULE'),
  ('lxml.html.ElementSoup',
   'E:\\coder\\AIS\\DLP_Storage\\venv\\lib\\site-packages\\lxml\\html\\ElementSoup.py',
   'PYMODULE'),
  ('lxml.html._diffcommand',
   'E:\\coder\\AIS\\DLP_Storage\\venv\\lib\\site-packages\\lxml\\html\\_diffcommand.py',
   'PYMODULE'),
  ('lxml.html',
   'E:\\coder\\AIS\\DLP_Storage\\venv\\lib\\site-packages\\lxml\\html\\__init__.py',
   'PYMODULE'),
  ('webbrowser', 'C:\\Python310\\lib\\webbrowser.py', 'PYMODULE'),
  ('glob', 'C:\\Python310\\lib\\glob.py', 'PYMODULE'),
  ('lxml.usedoctest',
   'E:\\coder\\AIS\\DLP_Storage\\venv\\lib\\site-packages\\lxml\\usedoctest.py',
   'PYMODULE'),
  ('lxml.html.usedoctest',
   'E:\\coder\\AIS\\DLP_Storage\\venv\\lib\\site-packages\\lxml\\html\\usedoctest.py',
   'PYMODULE'),
  ('lxml.doctestcompare',
   'E:\\coder\\AIS\\DLP_Storage\\venv\\lib\\site-packages\\lxml\\doctestcompare.py',
   'PYMODULE'),
  ('cgi', 'C:\\Python310\\lib\\cgi.py', 'PYMODULE'),
  ('doctest', 'C:\\Python310\\lib\\doctest.py', 'PYMODULE'),
  ('unittest', 'C:\\Python310\\lib\\unittest\\__init__.py', 'PYMODULE'),
  ('unittest.async_case',
   'C:\\Python310\\lib\\unittest\\async_case.py',
   'PYMODULE'),
  ('asyncio', 'C:\\Python310\\lib\\asyncio\\__init__.py', 'PYMODULE'),
  ('asyncio.unix_events',
   'C:\\Python310\\lib\\asyncio\\unix_events.py',
   'PYMODULE'),
  ('asyncio.log', 'C:\\Python310\\lib\\asyncio\\log.py', 'PYMODULE'),
  ('asyncio.windows_events',
   'C:\\Python310\\lib\\asyncio\\windows_events.py',
   'PYMODULE'),
  ('asyncio.windows_utils',
   'C:\\Python310\\lib\\asyncio\\windows_utils.py',
   'PYMODULE'),
  ('asyncio.selector_events',
   'C:\\Python310\\lib\\asyncio\\selector_events.py',
   'PYMODULE'),
  ('asyncio.proactor_events',
   'C:\\Python310\\lib\\asyncio\\proactor_events.py',
   'PYMODULE'),
  ('asyncio.base_subprocess',
   'C:\\Python310\\lib\\asyncio\\base_subprocess.py',
   'PYMODULE'),
  ('asyncio.threads', 'C:\\Python310\\lib\\asyncio\\threads.py', 'PYMODULE'),
  ('asyncio.subprocess',
   'C:\\Python310\\lib\\asyncio\\subprocess.py',
   'PYMODULE'),
  ('asyncio.streams', 'C:\\Python310\\lib\\asyncio\\streams.py', 'PYMODULE'),
  ('asyncio.queues', 'C:\\Python310\\lib\\asyncio\\queues.py', 'PYMODULE'),
  ('asyncio.runners', 'C:\\Python310\\lib\\asyncio\\runners.py', 'PYMODULE'),
  ('asyncio.events', 'C:\\Python310\\lib\\asyncio\\events.py', 'PYMODULE'),
  ('asyncio.base_events',
   'C:\\Python310\\lib\\asyncio\\base_events.py',
   'PYMODULE'),
  ('concurrent.futures',
   'C:\\Python310\\lib\\concurrent\\futures\\__init__.py',
   'PYMODULE'),
  ('concurrent.futures.thread',
   'C:\\Python310\\lib\\concurrent\\futures\\thread.py',
   'PYMODULE'),
  ('concurrent.futures.process',
   'C:\\Python310\\lib\\concurrent\\futures\\process.py',
   'PYMODULE'),
  ('concurrent.futures._base',
   'C:\\Python310\\lib\\concurrent\\futures\\_base.py',
   'PYMODULE'),
  ('concurrent', 'C:\\Python310\\lib\\concurrent\\__init__.py', 'PYMODULE'),
  ('asyncio.trsock', 'C:\\Python310\\lib\\asyncio\\trsock.py', 'PYMODULE'),
  ('asyncio.staggered',
   'C:\\Python310\\lib\\asyncio\\staggered.py',
   'PYMODULE'),
  ('asyncio.tasks', 'C:\\Python310\\lib\\asyncio\\tasks.py', 'PYMODULE'),
  ('asyncio.base_tasks',
   'C:\\Python310\\lib\\asyncio\\base_tasks.py',
   'PYMODULE'),
  ('asyncio.locks', 'C:\\Python310\\lib\\asyncio\\locks.py', 'PYMODULE'),
  ('asyncio.mixins', 'C:\\Python310\\lib\\asyncio\\mixins.py', 'PYMODULE'),
  ('asyncio.sslproto', 'C:\\Python310\\lib\\asyncio\\sslproto.py', 'PYMODULE'),
  ('asyncio.transports',
   'C:\\Python310\\lib\\asyncio\\transports.py',
   'PYMODULE'),
  ('asyncio.protocols',
   'C:\\Python310\\lib\\asyncio\\protocols.py',
   'PYMODULE'),
  ('asyncio.futures', 'C:\\Python310\\lib\\asyncio\\futures.py', 'PYMODULE'),
  ('asyncio.exceptions',
   'C:\\Python310\\lib\\asyncio\\exceptions.py',
   'PYMODULE'),
  ('asyncio.coroutines',
   'C:\\Python310\\lib\\asyncio\\coroutines.py',
   'PYMODULE'),
  ('asyncio.base_futures',
   'C:\\Python310\\lib\\asyncio\\base_futures.py',
   'PYMODULE'),
  ('asyncio.format_helpers',
   'C:\\Python310\\lib\\asyncio\\format_helpers.py',
   'PYMODULE'),
  ('asyncio.constants',
   'C:\\Python310\\lib\\asyncio\\constants.py',
   'PYMODULE'),
  ('unittest.signals', 'C:\\Python310\\lib\\unittest\\signals.py', 'PYMODULE'),
  ('unittest.main', 'C:\\Python310\\lib\\unittest\\main.py', 'PYMODULE'),
  ('unittest.runner', 'C:\\Python310\\lib\\unittest\\runner.py', 'PYMODULE'),
  ('unittest.loader', 'C:\\Python310\\lib\\unittest\\loader.py', 'PYMODULE'),
  ('unittest.suite', 'C:\\Python310\\lib\\unittest\\suite.py', 'PYMODULE'),
  ('unittest.case', 'C:\\Python310\\lib\\unittest\\case.py', 'PYMODULE'),
  ('unittest._log', 'C:\\Python310\\lib\\unittest\\_log.py', 'PYMODULE'),
  ('unittest.result', 'C:\\Python310\\lib\\unittest\\result.py', 'PYMODULE'),
  ('unittest.util', 'C:\\Python310\\lib\\unittest\\util.py', 'PYMODULE'),
  ('pdb', 'C:\\Python310\\lib\\pdb.py', 'PYMODULE'),
  ('pydoc', 'C:\\Python310\\lib\\pydoc.py', 'PYMODULE'),
  ('http.server', 'C:\\Python310\\lib\\http\\server.py', 'PYMODULE'),
  ('socketserver', 'C:\\Python310\\lib\\socketserver.py', 'PYMODULE'),
  ('pydoc_data.topics',
   'C:\\Python310\\lib\\pydoc_data\\topics.py',
   'PYMODULE'),
  ('pydoc_data', 'C:\\Python310\\lib\\pydoc_data\\__init__.py', 'PYMODULE'),
  ('tty', 'C:\\Python310\\lib\\tty.py', 'PYMODULE'),
  ('sysconfig', 'C:\\Python310\\lib\\sysconfig.py', 'PYMODULE'),
  ('_aix_support', 'C:\\Python310\\lib\\_aix_support.py', 'PYMODULE'),
  ('_bootsubprocess', 'C:\\Python310\\lib\\_bootsubprocess.py', 'PYMODULE'),
  ('platform', 'C:\\Python310\\lib\\platform.py', 'PYMODULE'),
  ('code', 'C:\\Python310\\lib\\code.py', 'PYMODULE'),
  ('codeop', 'C:\\Python310\\lib\\codeop.py', 'PYMODULE'),
  ('bdb', 'C:\\Python310\\lib\\bdb.py', 'PYMODULE'),
  ('cmd', 'C:\\Python310\\lib\\cmd.py', 'PYMODULE'),
  ('difflib', 'C:\\Python310\\lib\\difflib.py', 'PYMODULE'),
  ('lxml.pyclasslookup',
   'E:\\coder\\AIS\\DLP_Storage\\venv\\lib\\site-packages\\lxml\\pyclasslookup.py',
   'PYMODULE'),
  ('lxml.html._setmixin',
   'E:\\coder\\AIS\\DLP_Storage\\venv\\lib\\site-packages\\lxml\\html\\_setmixin.py',
   'PYMODULE'),
  ('lxml.includes.extlibs',
   'E:\\coder\\AIS\\DLP_Storage\\venv\\lib\\site-packages\\lxml\\includes\\extlibs\\__init__.py',
   'PYMODULE'),
  ('lxml.includes.libxslt',
   'E:\\coder\\AIS\\DLP_Storage\\venv\\lib\\site-packages\\lxml\\includes\\libxslt\\__init__.py',
   'PYMODULE'),
  ('lxml.html.formfill',
   'E:\\coder\\AIS\\DLP_Storage\\venv\\lib\\site-packages\\lxml\\html\\formfill.py',
   'PYMODULE'),
  ('docx.opc.packuri',
   'E:\\coder\\AIS\\DLP_Storage\\venv\\lib\\site-packages\\docx\\opc\\packuri.py',
   'PYMODULE'),
  ('docx.opc',
   'E:\\coder\\AIS\\DLP_Storage\\venv\\lib\\site-packages\\docx\\opc\\__init__.py',
   'PYMODULE'),
  ('__future__', 'C:\\Python310\\lib\\__future__.py', 'PYMODULE'),
  ('docx.parts.settings',
   'E:\\coder\\AIS\\DLP_Storage\\venv\\lib\\site-packages\\docx\\parts\\settings.py',
   'PYMODULE'),
  ('docx.settings',
   'E:\\coder\\AIS\\DLP_Storage\\venv\\lib\\site-packages\\docx\\settings.py',
   'PYMODULE'),
  ('docx.parts.numbering',
   'E:\\coder\\AIS\\DLP_Storage\\venv\\lib\\site-packages\\docx\\parts\\numbering.py',
   'PYMODULE'),
  ('docx.parts.image',
   'E:\\coder\\AIS\\DLP_Storage\\venv\\lib\\site-packages\\docx\\parts\\image.py',
   'PYMODULE'),
  ('docx.image.image',
   'E:\\coder\\AIS\\DLP_Storage\\venv\\lib\\site-packages\\docx\\image\\image.py',
   'PYMODULE'),
  ('docx.image',
   'E:\\coder\\AIS\\DLP_Storage\\venv\\lib\\site-packages\\docx\\image\\__init__.py',
   'PYMODULE'),
  ('docx.image.tiff',
   'E:\\coder\\AIS\\DLP_Storage\\venv\\lib\\site-packages\\docx\\image\\tiff.py',
   'PYMODULE'),
  ('docx.image.helpers',
   'E:\\coder\\AIS\\DLP_Storage\\venv\\lib\\site-packages\\docx\\image\\helpers.py',
   'PYMODULE'),
  ('docx.image.constants',
   'E:\\coder\\AIS\\DLP_Storage\\venv\\lib\\site-packages\\docx\\image\\constants.py',
   'PYMODULE'),
  ('docx.image.png',
   'E:\\coder\\AIS\\DLP_Storage\\venv\\lib\\site-packages\\docx\\image\\png.py',
   'PYMODULE'),
  ('docx.image.jpeg',
   'E:\\coder\\AIS\\DLP_Storage\\venv\\lib\\site-packages\\docx\\image\\jpeg.py',
   'PYMODULE'),
  ('docx.image.gif',
   'E:\\coder\\AIS\\DLP_Storage\\venv\\lib\\site-packages\\docx\\image\\gif.py',
   'PYMODULE'),
  ('docx.image.bmp',
   'E:\\coder\\AIS\\DLP_Storage\\venv\\lib\\site-packages\\docx\\image\\bmp.py',
   'PYMODULE'),
  ('docx.image.exceptions',
   'E:\\coder\\AIS\\DLP_Storage\\venv\\lib\\site-packages\\docx\\image\\exceptions.py',
   'PYMODULE'),
  ('docx.parts.hdrftr',
   'E:\\coder\\AIS\\DLP_Storage\\venv\\lib\\site-packages\\docx\\parts\\hdrftr.py',
   'PYMODULE'),
  ('docx.parts.story',
   'E:\\coder\\AIS\\DLP_Storage\\venv\\lib\\site-packages\\docx\\parts\\story.py',
   'PYMODULE'),
  ('docx.parts.document',
   'E:\\coder\\AIS\\DLP_Storage\\venv\\lib\\site-packages\\docx\\parts\\document.py',
   'PYMODULE'),
  ('docx.shape',
   'E:\\coder\\AIS\\DLP_Storage\\venv\\lib\\site-packages\\docx\\shape.py',
   'PYMODULE'),
  ('docx.enum.shape',
   'E:\\coder\\AIS\\DLP_Storage\\venv\\lib\\site-packages\\docx\\enum\\shape.py',
   'PYMODULE'),
  ('docx.document',
   'E:\\coder\\AIS\\DLP_Storage\\venv\\lib\\site-packages\\docx\\document.py',
   'PYMODULE'),
  ('docx.section',
   'E:\\coder\\AIS\\DLP_Storage\\venv\\lib\\site-packages\\docx\\section.py',
   'PYMODULE'),
  ('docx.blkcntnr',
   'E:\\coder\\AIS\\DLP_Storage\\venv\\lib\\site-packages\\docx\\blkcntnr.py',
   'PYMODULE'),
  ('docx.table',
   'E:\\coder\\AIS\\DLP_Storage\\venv\\lib\\site-packages\\docx\\table.py',
   'PYMODULE'),
  ('docx.text.paragraph',
   'E:\\coder\\AIS\\DLP_Storage\\venv\\lib\\site-packages\\docx\\text\\paragraph.py',
   'PYMODULE'),
  ('docx.text.run',
   'E:\\coder\\AIS\\DLP_Storage\\venv\\lib\\site-packages\\docx\\text\\run.py',
   'PYMODULE'),
  ('docx.opc.parts.coreprops',
   'E:\\coder\\AIS\\DLP_Storage\\venv\\lib\\site-packages\\docx\\opc\\parts\\coreprops.py',
   'PYMODULE'),
  ('docx.opc.parts',
   'E:\\coder\\AIS\\DLP_Storage\\venv\\lib\\site-packages\\docx\\opc\\parts\\__init__.py',
   'PYMODULE'),
  ('docx.opc.coreprops',
   'E:\\coder\\AIS\\DLP_Storage\\venv\\lib\\site-packages\\docx\\opc\\coreprops.py',
   'PYMODULE'),
  ('docx.opc.part',
   'E:\\coder\\AIS\\DLP_Storage\\venv\\lib\\site-packages\\docx\\opc\\part.py',
   'PYMODULE'),
  ('docx.opc.shared',
   'E:\\coder\\AIS\\DLP_Storage\\venv\\lib\\site-packages\\docx\\opc\\shared.py',
   'PYMODULE'),
  ('docx.opc.rel',
   'E:\\coder\\AIS\\DLP_Storage\\venv\\lib\\site-packages\\docx\\opc\\rel.py',
   'PYMODULE'),
  ('docx.opc.oxml',
   'E:\\coder\\AIS\\DLP_Storage\\venv\\lib\\site-packages\\docx\\opc\\oxml.py',
   'PYMODULE'),
  ('docx.opc.compat',
   'E:\\coder\\AIS\\DLP_Storage\\venv\\lib\\site-packages\\docx\\opc\\compat.py',
   'PYMODULE'),
  ('docx.opc.constants',
   'E:\\coder\\AIS\\DLP_Storage\\venv\\lib\\site-packages\\docx\\opc\\constants.py',
   'PYMODULE'),
  ('docx.api',
   'E:\\coder\\AIS\\DLP_Storage\\venv\\lib\\site-packages\\docx\\api.py',
   'PYMODULE'),
  ('docx.package',
   'E:\\coder\\AIS\\DLP_Storage\\venv\\lib\\site-packages\\docx\\package.py',
   'PYMODULE'),
  ('docx.opc.package',
   'E:\\coder\\AIS\\DLP_Storage\\venv\\lib\\site-packages\\docx\\opc\\package.py',
   'PYMODULE'),
  ('docx.opc.pkgwriter',
   'E:\\coder\\AIS\\DLP_Storage\\venv\\lib\\site-packages\\docx\\opc\\pkgwriter.py',
   'PYMODULE'),
  ('docx.opc.spec',
   'E:\\coder\\AIS\\DLP_Storage\\venv\\lib\\site-packages\\docx\\opc\\spec.py',
   'PYMODULE'),
  ('docx.opc.phys_pkg',
   'E:\\coder\\AIS\\DLP_Storage\\venv\\lib\\site-packages\\docx\\opc\\phys_pkg.py',
   'PYMODULE'),
  ('docx.opc.exceptions',
   'E:\\coder\\AIS\\DLP_Storage\\venv\\lib\\site-packages\\docx\\opc\\exceptions.py',
   'PYMODULE'),
  ('docx.opc.pkgreader',
   'E:\\coder\\AIS\\DLP_Storage\\venv\\lib\\site-packages\\docx\\opc\\pkgreader.py',
   'PYMODULE')],
 [('api-ms-win-crt-locale-l1-1-0.dll',
   'C:\\Windows\\system32\\api-ms-win-crt-locale-l1-1-0.dll',
   'BINARY'),
  ('api-ms-win-crt-math-l1-1-0.dll',
   'C:\\Windows\\system32\\api-ms-win-crt-math-l1-1-0.dll',
   'BINARY'),
  ('python310.dll', 'C:\\Python310\\python310.dll', 'BINARY'),
  ('api-ms-win-crt-heap-l1-1-0.dll',
   'C:\\Windows\\system32\\api-ms-win-crt-heap-l1-1-0.dll',
   'BINARY'),
  ('VCRUNTIME140.dll', 'C:\\Python310\\VCRUNTIME140.dll', 'BINARY'),
  ('api-ms-win-crt-stdio-l1-1-0.dll',
   'C:\\Windows\\system32\\api-ms-win-crt-stdio-l1-1-0.dll',
   'BINARY'),
  ('api-ms-win-crt-runtime-l1-1-0.dll',
   'C:\\Windows\\system32\\api-ms-win-crt-runtime-l1-1-0.dll',
   'BINARY'),
  ('ucrtbase.dll', 'C:\\Windows\\system32\\ucrtbase.dll', 'BINARY'),
  ('api-ms-win-crt-convert-l1-1-0.dll',
   'C:\\Windows\\system32\\api-ms-win-crt-convert-l1-1-0.dll',
   'BINARY'),
  ('api-ms-win-crt-filesystem-l1-1-0.dll',
   'C:\\Windows\\system32\\api-ms-win-crt-filesystem-l1-1-0.dll',
   'BINARY'),
  ('api-ms-win-crt-conio-l1-1-0.dll',
   'C:\\Windows\\system32\\api-ms-win-crt-conio-l1-1-0.dll',
   'BINARY'),
  ('api-ms-win-core-path-l1-1-0.dll',
   'C:\\Windows\\system32\\api-ms-win-core-path-l1-1-0.dll',
   'BINARY'),
  ('api-ms-win-crt-process-l1-1-0.dll',
   'C:\\Windows\\system32\\api-ms-win-crt-process-l1-1-0.dll',
   'BINARY'),
  ('api-ms-win-crt-environment-l1-1-0.dll',
   'C:\\Windows\\system32\\api-ms-win-crt-environment-l1-1-0.dll',
   'BINARY'),
  ('api-ms-win-crt-string-l1-1-0.dll',
   'C:\\Windows\\system32\\api-ms-win-crt-string-l1-1-0.dll',
   'BINARY'),
  ('api-ms-win-crt-time-l1-1-0.dll',
   'C:\\Windows\\system32\\api-ms-win-crt-time-l1-1-0.dll',
   'BINARY'),
  ('api-ms-win-core-console-l1-1-0.dll',
   'C:\\Windows\\system32\\api-ms-win-core-console-l1-1-0.dll',
   'BINARY'),
  ('api-ms-win-core-interlocked-l1-1-0.dll',
   'C:\\Windows\\system32\\api-ms-win-core-interlocked-l1-1-0.dll',
   'BINARY'),
  ('api-ms-win-core-debug-l1-1-0.dll',
   'C:\\Windows\\system32\\api-ms-win-core-debug-l1-1-0.dll',
   'BINARY'),
  ('api-ms-win-core-datetime-l1-1-0.dll',
   'C:\\Windows\\system32\\api-ms-win-core-datetime-l1-1-0.dll',
   'BINARY'),
  ('api-ms-win-core-file-l1-1-0.dll',
   'C:\\Windows\\system32\\api-ms-win-core-file-l1-1-0.dll',
   'BINARY'),
  ('api-ms-win-core-errorhandling-l1-1-0.dll',
   'C:\\Windows\\system32\\api-ms-win-core-errorhandling-l1-1-0.dll',
   'BINARY'),
  ('api-ms-win-core-heap-l1-1-0.dll',
   'C:\\Windows\\system32\\api-ms-win-core-heap-l1-1-0.dll',
   'BINARY'),
  ('api-ms-win-core-string-l1-1-0.dll',
   'C:\\Windows\\system32\\api-ms-win-core-string-l1-1-0.dll',
   'BINARY'),
  ('api-ms-win-core-namedpipe-l1-1-0.dll',
   'C:\\Windows\\system32\\api-ms-win-core-namedpipe-l1-1-0.dll',
   'BINARY'),
  ('api-ms-win-core-handle-l1-1-0.dll',
   'C:\\Windows\\system32\\api-ms-win-core-handle-l1-1-0.dll',
   'BINARY'),
  ('api-ms-win-core-synch-l1-2-0.dll',
   'C:\\Windows\\system32\\api-ms-win-core-synch-l1-2-0.dll',
   'BINARY'),
  ('api-ms-win-core-util-l1-1-0.dll',
   'C:\\Windows\\system32\\api-ms-win-core-util-l1-1-0.dll',
   'BINARY'),
  ('api-ms-win-core-sysinfo-l1-1-0.dll',
   'C:\\Windows\\system32\\api-ms-win-core-sysinfo-l1-1-0.dll',
   'BINARY'),
  ('api-ms-win-core-processenvironment-l1-1-0.dll',
   'C:\\Windows\\system32\\api-ms-win-core-processenvironment-l1-1-0.dll',
   'BINARY'),
  ('api-ms-win-core-synch-l1-1-0.dll',
   'C:\\Windows\\system32\\api-ms-win-core-synch-l1-1-0.dll',
   'BINARY'),
  ('api-ms-win-core-file-l2-1-0.dll',
   'C:\\Windows\\system32\\api-ms-win-core-file-l2-1-0.dll',
   'BINARY'),
  ('api-ms-win-core-rtlsupport-l1-1-0.dll',
   'C:\\Windows\\system32\\api-ms-win-core-rtlsupport-l1-1-0.dll',
   'BINARY'),
  ('api-ms-win-core-timezone-l1-1-0.dll',
   'C:\\Windows\\system32\\api-ms-win-core-timezone-l1-1-0.dll',
   'BINARY'),
  ('api-ms-win-core-profile-l1-1-0.dll',
   'C:\\Windows\\system32\\api-ms-win-core-profile-l1-1-0.dll',
   'BINARY'),
  ('api-ms-win-core-file-l1-2-0.dll',
   'C:\\Windows\\system32\\api-ms-win-core-file-l1-2-0.dll',
   'BINARY'),
  ('api-ms-win-core-libraryloader-l1-1-0.dll',
   'C:\\Windows\\system32\\api-ms-win-core-libraryloader-l1-1-0.dll',
   'BINARY'),
  ('api-ms-win-core-processthreads-l1-1-1.dll',
   'C:\\Windows\\system32\\api-ms-win-core-processthreads-l1-1-1.dll',
   'BINARY'),
  ('api-ms-win-core-localization-l1-2-0.dll',
   'C:\\Windows\\system32\\api-ms-win-core-localization-l1-2-0.dll',
   'BINARY'),
  ('api-ms-win-core-processthreads-l1-1-0.dll',
   'C:\\Windows\\system32\\api-ms-win-core-processthreads-l1-1-0.dll',
   'BINARY'),
  ('api-ms-win-core-memory-l1-1-0.dll',
   'C:\\Windows\\system32\\api-ms-win-core-memory-l1-1-0.dll',
   'BINARY'),
  ('_multiprocessing',
   'C:\\Python310\\DLLs\\_multiprocessing.pyd',
   'EXTENSION'),
  ('_decimal', 'C:\\Python310\\DLLs\\_decimal.pyd', 'EXTENSION'),
  ('_hashlib', 'C:\\Python310\\DLLs\\_hashlib.pyd', 'EXTENSION'),
  ('unicodedata', 'C:\\Python310\\DLLs\\unicodedata.pyd', 'EXTENSION'),
  ('select', 'C:\\Python310\\DLLs\\select.pyd', 'EXTENSION'),
  ('_socket', 'C:\\Python310\\DLLs\\_socket.pyd', 'EXTENSION'),
  ('_lzma', 'C:\\Python310\\DLLs\\_lzma.pyd', 'EXTENSION'),
  ('_bz2', 'C:\\Python310\\DLLs\\_bz2.pyd', 'EXTENSION'),
  ('pyexpat', 'C:\\Python310\\DLLs\\pyexpat.pyd', 'EXTENSION'),
  ('_ssl', 'C:\\Python310\\DLLs\\_ssl.pyd', 'EXTENSION'),
  ('_ctypes', 'C:\\Python310\\DLLs\\_ctypes.pyd', 'EXTENSION'),
  ('_queue', 'C:\\Python310\\DLLs\\_queue.pyd', 'EXTENSION'),
  ('lxml.etree',
   'E:\\coder\\AIS\\DLP_Storage\\venv\\lib\\site-packages\\lxml\\etree.cp310-win_amd64.pyd',
   'EXTENSION'),
  ('lxml._elementpath',
   'E:\\coder\\AIS\\DLP_Storage\\venv\\lib\\site-packages\\lxml\\_elementpath.cp310-win_amd64.pyd',
   'EXTENSION'),
  ('lxml.html.clean',
   'E:\\coder\\AIS\\DLP_Storage\\venv\\lib\\site-packages\\lxml\\html\\clean.cp310-win_amd64.pyd',
   'EXTENSION'),
  ('lxml.objectify',
   'E:\\coder\\AIS\\DLP_Storage\\venv\\lib\\site-packages\\lxml\\objectify.cp310-win_amd64.pyd',
   'EXTENSION'),
  ('lxml.sax',
   'E:\\coder\\AIS\\DLP_Storage\\venv\\lib\\site-packages\\lxml\\sax.cp310-win_amd64.pyd',
   'EXTENSION'),
  ('_overlapped', 'C:\\Python310\\DLLs\\_overlapped.pyd', 'EXTENSION'),
  ('_asyncio', 'C:\\Python310\\DLLs\\_asyncio.pyd', 'EXTENSION'),
  ('lxml.builder',
   'E:\\coder\\AIS\\DLP_Storage\\venv\\lib\\site-packages\\lxml\\builder.cp310-win_amd64.pyd',
   'EXTENSION'),
  ('lxml.html.diff',
   'E:\\coder\\AIS\\DLP_Storage\\venv\\lib\\site-packages\\lxml\\html\\diff.cp310-win_amd64.pyd',
   'EXTENSION'),
  ('libcrypto-1_1.dll', 'C:\\Python310\\DLLs\\libcrypto-1_1.dll', 'BINARY'),
  ('api-ms-win-crt-utility-l1-1-0.dll',
   'C:\\Windows\\system32\\api-ms-win-crt-utility-l1-1-0.dll',
   'BINARY'),
  ('libssl-1_1.dll', 'C:\\Python310\\DLLs\\libssl-1_1.dll', 'BINARY'),
  ('libffi-7.dll', 'C:\\Python310\\DLLs\\libffi-7.dll', 'BINARY')],
 [],
 [],
 [('base_library.zip',
   'E:\\coder\\AIS\\DLP_Storage\\build\\main\\base_library.zip',
   'DATA'),
  ('docx\\templates\\default.docx',
   'E:\\coder\\AIS\\DLP_Storage\\venv\\lib\\site-packages\\docx\\templates\\default.docx',
   'DATA'),
  ('lxml\\isoschematron\\resources\\xsl\\iso-schematron-xslt1\\readme.txt',
   'E:\\coder\\AIS\\DLP_Storage\\venv\\lib\\site-packages\\lxml\\isoschematron\\resources\\xsl\\iso-schematron-xslt1\\readme.txt',
   'DATA'),
  ('lxml\\isoschematron\\resources\\xsl\\iso-schematron-xslt1\\iso_schematron_message.xsl',
   'E:\\coder\\AIS\\DLP_Storage\\venv\\lib\\site-packages\\lxml\\isoschematron\\resources\\xsl\\iso-schematron-xslt1\\iso_schematron_message.xsl',
   'DATA'),
  ('lxml\\isoschematron\\resources\\xsl\\iso-schematron-xslt1\\iso_dsdl_include.xsl',
   'E:\\coder\\AIS\\DLP_Storage\\venv\\lib\\site-packages\\lxml\\isoschematron\\resources\\xsl\\iso-schematron-xslt1\\iso_dsdl_include.xsl',
   'DATA'),
  ('lxml\\isoschematron\\resources\\xsl\\iso-schematron-xslt1\\iso_svrl_for_xslt1.xsl',
   'E:\\coder\\AIS\\DLP_Storage\\venv\\lib\\site-packages\\lxml\\isoschematron\\resources\\xsl\\iso-schematron-xslt1\\iso_svrl_for_xslt1.xsl',
   'DATA'),
  ('docx\\templates\\default-styles.xml',
   'E:\\coder\\AIS\\DLP_Storage\\venv\\lib\\site-packages\\docx\\templates\\default-styles.xml',
   'DATA'),
  ('docx\\templates\\default-header.xml',
   'E:\\coder\\AIS\\DLP_Storage\\venv\\lib\\site-packages\\docx\\templates\\default-header.xml',
   'DATA'),
  ('docx\\templates\\default-settings.xml',
   'E:\\coder\\AIS\\DLP_Storage\\venv\\lib\\site-packages\\docx\\templates\\default-settings.xml',
   'DATA'),
  ('lxml\\isoschematron\\resources\\xsl\\RNG2Schtrn.xsl',
   'E:\\coder\\AIS\\DLP_Storage\\venv\\lib\\site-packages\\lxml\\isoschematron\\resources\\xsl\\RNG2Schtrn.xsl',
   'DATA'),
  ('lxml\\isoschematron\\resources\\rng\\iso-schematron.rng',
   'E:\\coder\\AIS\\DLP_Storage\\venv\\lib\\site-packages\\lxml\\isoschematron\\resources\\rng\\iso-schematron.rng',
   'DATA'),
  ('lxml\\isoschematron\\resources\\xsl\\iso-schematron-xslt1\\iso_abstract_expand.xsl',
   'E:\\coder\\AIS\\DLP_Storage\\venv\\lib\\site-packages\\lxml\\isoschematron\\resources\\xsl\\iso-schematron-xslt1\\iso_abstract_expand.xsl',
   'DATA'),
  ('lxml\\isoschematron\\resources\\xsl\\iso-schematron-xslt1\\iso_schematron_skeleton_for_xslt1.xsl',
   'E:\\coder\\AIS\\DLP_Storage\\venv\\lib\\site-packages\\lxml\\isoschematron\\resources\\xsl\\iso-schematron-xslt1\\iso_schematron_skeleton_for_xslt1.xsl',
   'DATA'),
  ('lxml\\isoschematron\\resources\\xsl\\XSD2Schtrn.xsl',
   'E:\\coder\\AIS\\DLP_Storage\\venv\\lib\\site-packages\\lxml\\isoschematron\\resources\\xsl\\XSD2Schtrn.xsl',
   'DATA'),
  ('docx\\templates\\default-footer.xml',
   'E:\\coder\\AIS\\DLP_Storage\\venv\\lib\\site-packages\\docx\\templates\\default-footer.xml',
   'DATA')],
 [])
